5000
5
1973, 1235, 727, 474, 234, 1830, 2061, 1013, 1409, 2471, 2105, 1022, 1673, 159, 2415, 1097, 1383, 732, 969, 1165, 625, 2324, 593, 208, 1963, 881, 67, 614, 530, 2258, 76, 670, 235, 2485, 1722, 138, 452, 1513, 2313, 849
77, 18, 21, 83, 35, 4, 63, 31, 62, 18, 96, 90, 30, 88, 84, 96, 1, 43, 79, 45, 18, 56, 12, 27, 84, 20, 15, 71, 28, 94, 43, 98, 67, 18, 34, 99, 28, 29, 81, 85
5, 3, 5, 2, 2, 3, 1, 5, 3, 4, 5, 2, 4, 5, 4, 2, 2, 5, 4, 5, 1, 5, 3, 3, 1, 1, 1, 2, 3, 2, 2, 1, 3, 3, 3, 1, 5, 2, 4, 3